{
	"common": {
		"brand": "Salus",
		"countries": {
			"cz": "Tsjekkia",
			"de": "Tyskland",
			"dk": "Danmark",
			"es": "Spania",
			"fr": "Frankrike",
			"hu": "Ungarn",
			"it": "Italia",
			"nl": "Nederland",
			"no": "Norge",
			"pl": "Polen",
			"ro": "Romania",
			"ru": "Russland",
			"sk": "Slovakia",
			"sl": "Slovenia",
			"sv": "Sverige",
			"uk": "Storbritannia",
			"us": "USA"
		},
		"daysOfWeek": {
			"abbreviations": {
				"friday": "Fre",
				"monday": "Man",
				"saturday": "Lør",
				"sunday": "Søn",
				"thursday": "Tor",
				"tuesday": "Tir",
				"wednesday": "Ons"
			}
		},
		"footer": {
			"copyrightText": "Salus Controls, Inc. Alle rettigheter forbeholdt.",
			"privacyPolicy": "Personvern",
			"termsAndConditions": "Retningslinjer og betingelser"
		},
		"header": {
			"about": "Om denne appen",
			"allEquipment": "Hele utstyret",
			"contactSupport": "Kontakt støtte",
			"dataCollection": "Datainnsamling",
			"equipment": "Utstyr",
			"faq": "FAQ (Ofte spurte spørsmål)",
			"gateways": "Gatewayer",
			"help": "Hjelp",
			"home": "Hjem",
			"logout": "Logg ut",
			"messageCenter": "Meldingssenter",
			"myStatus": "Min status",
			"oneTouch": "Onetouch",
			"profile": "Profil",
			"settings": "Innstillinger",
			"setupEquipment": "Oppsett av utstyr"
		},
		"labels": {
			"accept": "Aksept",
			"apply": "Bruk",
			"back": "Tilbake",
			"cancel": "Avbryt",
			"close": "Lukk",
			"create": "Opprett",
			"daily": "Daglig",
			"delete": "Slett",
			"edit": "Rediger",
			"email": "E-post",
			"enable": "Aktiver",
			"finished": "Avslutt",
			"monthly": "Månedlig",
			"next": "Neste",
			"no": "Nei",
			"off": "av",
			"ok": "OK",
			"on": "på",
			"save": "Lagre",
			"saved": "Lagret",
			"select": "Velg et element",
			"set": "Sett",
			"skip": "Hopp over",
			"turnOff": "Slå av",
			"turnOn": "Slå på",
			"weekly": "Ukentlig",
			"yearly": "Årlig",
			"yes": "Ja"
		},
		"languages": {
			"cs": "Tsjekkisk",
			"da": "Dansk",
			"de": "Tysk",
			"en-uk": "Engelsk (UK)",
			"en-us": "Engelsk (USA)",
			"es": "Spansk",
			"fr": "Fransk",
			"hu": "Ungarsk",
			"it": "Italiensk",
			"nl": "Nederlandsk",
			"no": "Norsk",
			"pl": "Polsk",
			"ro": "Rumensk",
			"ru": "Russisk",
			"sk": "Slovakisk",
			"sl": "Slovensk",
			"sv": "Svensk"
		},
		"lessDetails": "Mindre detaljer",
		"loadingMessage": "Salus laster...",
		"months": {
			"april": "April",
			"august": "August",
			"december": "Desember",
			"february": "Februar",
			"january": "Januar",
			"july": "Juli",
			"june": "Juni",
			"march": "Mars",
			"may": "Mai",
			"november": "November",
			"october": "Oktober",
			"september": "September"
		},
		"moreDetails": "Mer detaljer",
		"symbols": {
			"celsius": "&#8451;",
			"fahrenheit": "&#8457;"
		},
		"validation": {
			"ayla": {
				"cantbeblank": "Dette feltet kan ikke stå tomt.",
				"confirmaccountbeforecontinue": "Vennligst bekreft konto før du fortsetter",
				"hasalreadybeentaken": "Denne e-postadressen er allerede i bruk",
				"isinvalid": "Dette feltet er ugyldig",
				"tokeninvalid": "Dette symbolet er ugyldig",
				"useridisalreadygratnedforthatresource": "Denne e-postadressen er allerede i bruk"
			},
			"default": {
				"requiredField": "Dette feltet er obligatorisk"
			},
			"email": {
				"alreadyConfirmed": "Denne e-postadressen er allerede bekreftet.",
				"notFound": "Ingen kjent konto for den e-posten",
				"notMatching": "E-postadressene du la inn samsvarer ikke",
				"notValid": "E-postadressen du la inn er ikke en gyldig e-postadresse"
			},
			"integerRangeFormatted": "Heltall mellom __min__ og __maks__",
			"ipAddress": "Denne adressen is ugyldig. Vennligst bruk formen x.x.x.x",
			"mobile": {
				"notValid": "Dette er ikke et gyldig telefonnummer.",
				"selectCountry": "Vennligst velg et land først."
			},
			"numberRangeFormatted": "Tall mellom __min__ og __maks__",
			"passwords": {
				"notMatching": "Passordene samsvarer ikke",
				"tooLong": "Passord må ikke være lenger enn fjorten tegn",
				"tooShort": "Passord må være minst seks tegn",
				"tooSimple": "Dette passordet er for enkelt"
			},
			"postcode": {
				"notValid": "Ugyldig postnummer"
			},
			"wordsOnly": "Dette feltet støtter bare bokstavtegn. (ikke tall)",
			"zip": {
				"notValid": "Denne koden er ugyldig. Må være opp til et 9-sifret tall."
			}
		}
	},
	"dashboard": {
		"addGateway": "Legg til ny port",
		"header": {
			"addAPhoto": "Legg til foto",
			"cancelScan": "Avbryt skanning?",
			"choosePhoto": "Velg foto fra bibliotek",
			"scanComplete": "Skanning fullført",
			"scanMyHome": "Skann mitt hjem",
			"scanned": "skannet",
			"scanning": "Skanner...",
			"takeAPhoto": "Ta et foto"
		},
		"welcomeTile": {
			"description": "Kontrollpanelet lar deg se og administrere utstyret ditt på et øyeblikk. Kontaktutstyr, Onetouch, og mer for en uanstrengt styring av hjemmet fra en skjerm.",
			"title": "Velkommen til ditt kontrollpanel!"
		}
	},
	"email": {
		"dynamic_body": {
			"title": "Hallo [[user_name]]"
		},
		"footer": {
			"legalText": "",
			"salusCompanyAddress": "850 Main St, Redwood City, CA 94063",
			"salusCompanyName": "Salus Controls, Inc",
			"salusCopyRightHTML": "&copy; Salus Inc. 2016",
			"salusWebSiteText": "www.salusinc.com",
			"salusWebSiteUrl": "http://www.salusinc.com"
		},
		"guest_signup_confirmation": {
			"buttonText": "Bekreft konto",
			"contentBottomHTML": "<p>Velkommen til Salus Connected Solutions!</p>",
			"contentTopHTML": "<p>Du har blit invitert til [primary user]’s Salus konto. Vennligst bekreft din gjestekonto nå. Du har 30 dager fra i dag til å bekrefte.</p>",
			"emailSubject": "Vennligst bekreft din tilgang som Salus-gjest",
			"title": "Velkommen [[user_name]]!"
		},
		"password_reset": {
			"buttonText": "Tilbakestill passord",
			"contentBottomHTML": "<p>Om du ikke spurte om denne tilbakestillingen eller har ombestemt deg kan du bare overse denne meldingen; ingen handling er nødvendig.</p><p>Bekymringer eller assistanse?  Se våre støttesider for nyttig informasjon.</p><p>Ditt Salus Connected Solution Serviceteam</p>",
			"contentTopHTML": "<p>We received your password reset request. Please reset your password now. Your reset request will expire in 6 hours and this link is only good for one use.</p>",
			"emailSubject": "Din nullstillingsordre",
			"title": "Hello [[user_name]]"
		},
		"resource_share": {
			"emailBodyHTML": "[[share_owner_user_name]] gav deg [[share_operation]] tilgang til [[share_resource_name]] med ID: [[share_resource_id]]",
			"emailSubject": "[[share_owner_user_name]] gav deg [[share_operation]] tilgang  til [[share_resource_name]] med ID: [[share_resource_id]]",
			"title": "Hallo [[share_target_user_name]]"
		},
		"signup_confirmation": {
			"buttonText": "Bekreft konto",
			"contentBottomHTML": "",
			"contentTopHTML": "<p>Takk for at du oppretter din profil. Vennligst bekreft din konto nå. Du har 30 dager fra i dag å bekrefte på.</p><p>Så snart din konto er bekeftet, vil vi veilede deg gjennom resten av oppsettprosessen.</p><p>Velkommen til Salus Connected Solutions!</p>",
			"emailSubject": "Vennligst bekreft din Salus-konto",
			"title": "Velkommen [[user_name]]!"
		},
		"trigger_app": {
			"title": "Hallo [[user_name]]"
		}
	},
	"equipment": {
		"common": {
			"firmVer": "Fastvareversjon:",
			"mac": "Macadresse:",
			"model": "Modell:",
			"serialNum": "Serie #:"
		},
		"delete": {
			"equipmentDontWorry": "Ikke bekymre deg, du kan alltids legge det  til senere.",
			"gatewayWarning": "Men all service knyttet til gatewayen vil bli slettet også.",
			"removeEquipment": "Koble fra utstyr",
			"removeEquipmentFormatted": "Koble fra __modelTypeName__",
			"removeSharedEquipmentFormatted": "Koble fra delt __modelTypeName__",
			"sharesDontWorry": "Ikke bekymre deg, du kan alltid legge dem til senere.",
			"warning": "Du er i ferd med å slette __product_name__"
		},
		"dialog": {
			"body": "Velg fra følgende alternativer:",
			"changeAllDevicesFormatted": "Skift alt __modelTypeName__ utstyr",
			"changeThisDevice": "Skift bare dette",
			"checkboxDoNotShowAgain": "Ikke vis meg dette igjen",
			"titleFormatted": "Du er i ferd med å endre innstillingene for en enkelt __modelTypeName__"
		},
		"error": {
			"deviceOffline": "Enheten er frakoblet",
			"eMeterGraphError": "Det var et problem med å laste grafen, trykk her for å laste på nytt",
			"syncError": "Egenkapene ble ikke synkronisert for __enheten__",
			"tryAgain": "Vennligst kontroller driftsstatusen på enheten din og prøv igjen senere."
		},
		"gateway": {
			"address": {
				"addressLabel": "Adresse",
				"cityLabel": "By",
				"header": "Adresse der utstyret er installert",
				"postcodeLabel": "Postnummer",
				"stateLabel": "Fylke",
				"zipLabel": "Postkode"
			},
			"deviceInputLabel": "Gatewaynavn",
			"deviceSerialNumber": "Gatewayens serienummer",
			"error": {
				"invalidDeviceSerialNumber": "Gateway ikke funnet. Vennligst prøv knappen på gateway og klikk på oppdatere-søk-knappen igjen.",
				"registrationFailedNoNodes": "Gateway-konfigurasjonen feilet. Vennligst vent to minutter og prøv igjen.",
				"registrationFailedUnknown": "Gateway-registrering feilet. Vennligst prøv igjen.",
				"registrationTimeout": "Registreringsvinduet har utløpt. Vennligst trykk knappen på gatewayen igjen."
			},
			"header": "Aktiver gatewayen",
			"instruction": "Når ditt gateway LED lys er blått, trykk på \"Søk etter  Gateway\" knappen nedenfor. Serienummeret på gatewayen skal automatisk oppdateres for deg.",
			"searchButton": "Søk etter Gateway",
			"subheader": "Sørg for at gatewayen er koblet til modemet med en ethernet-kabel.",
			"submitButton": "Aktiver min gateway"
		},
		"history": {
			"headers": {
				"date": "Dato",
				"event": "Hendelse",
				"time": "Tid",
				"user": "Bruker"
			},
			"title": "Historie"
		},
		"information": {
			"headers": {
				"connection": "Tilkoblet",
				"dsn": "Serie #",
				"firmware": "Maskinvareversjon",
				"mac": "MAC-adresse",
				"oem": "Modell",
				"version": "Programvareversjon"
			},
			"title": "Informasjon"
		},
		"it600Warnings": {
			"Error01": "Feil01: Termostat - paret TRV maskinvareproblem",
			"Error02": "Feil02: Termostat  gulvsensor overoppheting",
			"Error03": "Feil03: Termostat - gulvsensor åpen",
			"Error04": "Feil04: Termostat  -gulvsensor kort",
			"Error05": "Feil05: Termostat mistet link med koordinator",
			"Error06": "Feil06: Termostat mistet link med koblingssenter",
			"Error07": "Feil07: Termostat mistet link med TRV",
			"Error08": "Feil08: Termostat mistet link med mottak 1",
			"Error09": "Feil09: Termostat mistet link med mottak 2",
			"Error21": "Feil21: Termostat  paret TRV mistet link med koordinator",
			"Error22": "Feil22: Termostat  paret TRV lavt batteri",
			"Error23": "Feil23: Termostat mottar melding fra uparet TRV eller TRV mottar melding fra uparet termostat",
			"Error24": "Feil24: Termostat avvist av koblingssenter",
			"Error25": "Feil25: Termostat mistet link med parent",
			"Error30": "Feil30: Termostat  paret TRV utstyrsproblem",
			"Error31": "Feil31: Termostat - paret TRV tilpasningsproblem",
			"Error32": "Feil32: Termostat lavt batteri",
			"modal": {
				"title": "IT600 Aktuelle Feil"
			}
		},
		"myEquipment": {
			"categories": {
				"noEquipment": "Du har ikke utstyr av denne typen.",
				"schedules": {
					"scheduleButton": "Opprett plan",
					"scheduleText": "Opprett en plan nå",
					"smartPlugs": "Planer kjører automatisk dine smartplugger fra foretrukne innstillinger. Bruk våre anbefalte standardplaner eller still inn dine egne.",
					"thermostats": "Planer kjører automatisk din termostats varme eller avkjøling fra foretrukne innstillinger. Bruk våre anbefalte standardplaner eller still inn dine egne.",
					"waterHeaters": "Schedules automatically run your water heaters from preferred settings. Use our recommended default schedules or set your own."
				},
				"thermostats": {
					"createTsc": "Legg til ny enkelt-kontroll",
					"individualControls": "Individuelle kontroller",
					"singleControls": "Enkelt-kontroll",
					"thermostatsIn": "Termostater på"
				},
				"title": "Kategorier",
				"types": {
					"carbonMonoxideDetectors": "Kullosdetektorer",
					"doorMonitors": "Dørmonitorer",
					"energyMeters": "Energimålere",
					"gateways": "Gatewayer",
					"smartPlugs": "Smartplugger",
					"smokeDetectors": "Røykdetektorer",
					"thermostats": "Termostater",
					"trvs": "Termostatiske radiatorventiler",
					"waterHeaters": "Vannvarmere",
					"windowMonitors": "Vindusmonitorer",
					"wirelessUncontrollableDevices": "Trådløst ukontrollerbare enheter"
				}
			},
			"groups": {
				"addNewEquipment": "Legg til nytt utstyr",
				"addNewGroup": "Legg til ny gruppe",
				"groupEquipment": "Gruppeutstyr",
				"success": "Suksess!",
				"successMessage": "Din termostat-enkelt-kontroll er opprettet.",
				"title": "Grupper",
				"ungrouped": "Ugruppert utstyr"
			},
			"newGroup": {
				"createError": "Det oppstod et problem med å opprette ny gruppe. Vennligst prøv igjen",
				"delete": {
					"linkText": "Slett gruppe",
					"modalLabel": "Du er i ferd med å slette gruppen",
					"warning": "Ikke bekymre deg, enheten vil bli værende på din konto og du kan alltid opprette gruppen igjen."
				},
				"deviceError": "Grupper må bestå av minst en enhet",
				"empty": "Beklager, du har ikke noen enhet å vise!",
				"nameError": "Vennligst sett inn et gyldig gruppenavn",
				"newGroupText": "Navn på utstyrsgruppe",
				"newGroupTitle": "Gi gruppen et navn",
				"pageTitle": "Gruppeutstyr",
				"selectEquipmentTitle": "Velg det utstyret du vil ha i denne gruppen",
				"updateError": "Det oppstod et problem med å oppdatere gruppen. Vennligst prøv igjen"
			},
			"subHeader": "Organiser utstyret etter eget ønske - etter kategori, sted eller slik det passer deg best.",
			"title": "Mitt utstyr"
		},
		"names": {
			"carbonMonoxideDetector": "CO-detektor",
			"coordinatorDevice": "Koordinatorenhet",
			"doorMonitor": "Dørmonitor",
			"energyMeter": "Energimåler",
			"gateway": "Gateway",
			"gatewayNode": "Gateway-node",
			"generic": "Utstyr",
			"iT600BoilerReceiver": "Mottaker fra varmtvannsbeholder",
			"iT600Thermostat": "IT600 termostat",
			"iT600Trv": "TRV",
			"iT600WiringCenter": "Koblingssenter",
			"miniSmartPlug": "Smartplugg",
			"smartPlug": "Smartplugg",
			"smokeDetector": "Røykdetektor",
			"thermostat": "Termostat",
			"waterHeater": "Vannvarmer",
			"windowMonitor": "Vindusmonitor"
		},
		"oneTouch": {
			"automations": {
				"addNew": "Legg til en ny Onetouch",
				"added": "Onetouch lagt til",
				"title": "Onetouch"
			},
			"create": {
				"criteriaSection": "Sett reglene",
				"defaultRuleName": "Ny Onetouch-regel __ruleNum__",
				"include": "Inkludere denne Onetouchen  i en status?",
				"missingCriteriaError": "Vennligst velg minst en handling",
				"nameSection": "Gi denne Onetouchen et navn",
				"nameTextbox": "F. eks. Utelys",
				"pin": {
					"pinText": "Fest",
					"subtitle": "Vil du feste denne Onetouchen til kontrollpanelet?",
					"unpinText": "Ikke fest"
				},
				"subtitle": "",
				"title": "Opprett en ny Onetouch"
			},
			"criteria": {
				"andWhen": "og når",
				"buttonPress": "Kjør nå-knappen er trykket",
				"dayOfWeek": {
					"everyday": "Hverdag",
					"prefix": "Ukedagen er __val__",
					"weekdays": "Ukedager",
					"weekends": "Ukeslutt"
				},
				"doThis": "gjør dette",
				"orWhen": "eller når",
				"propVal": {
					"doorWindow": {
						"closed": "lukket",
						"open": "åpen"
					},
					"generic": "Sett __enhets_navn__ til __val__",
					"is": "er __val__",
					"isBetween": "er mellom __nedre_val__ og __øvre_val__",
					"isGreaterThan": "er større enn __val__",
					"isLessThan": "er mindre enn __val__",
					"sensor": {
						"alerting": "varsler"
					},
					"smartPlug": {
						"action": "Sett __enhets_navn__ __val__",
						"off": "AV",
						"on": "PÅ"
					},
					"thermostat": {
						"action": "Sett __enhets_navn__ til __val__",
						"auto": "Automodus",
						"cooling": "Kjølemodus",
						"decreaseBy": "reduser med __val__ grader",
						"degrees": "grader",
						"fanAuto": "Vifte auto",
						"fanOn": "Vifte på",
						"heating": "Oppvarmingsmodus",
						"increaseBy": "Øk med __val__ grader",
						"off": "Av"
					},
					"waterHeater": {
						"action": "Still inn __enhets_navn__ til __val__",
						"boost": "økning",
						"continuous": "kontinuerlig",
						"off": "av",
						"schedule": "planlagt"
					}
				},
				"sendAlert": {
					"email": {
						"prefix": "Send en e-post til __val__",
						"sendEmail": "Send en e-post"
					},
					"sms": {
						"prefix": "Send SMS til __val__",
						"sendSMS": "Send SMS"
					}
				},
				"sorry": "Beklager",
				"thenDoThis": "deretter gjør dette",
				"thenDoThisLater": "gjør så dette senere",
				"timeOfDay": {
					"prefix": "Klokken er __val__",
					"suffix": "til __val__"
				},
				"timer": {
					"baseTime": "__egenskaps_handlinger__ i __time_streng__",
					"combined": "__time_streng__ og __min_string__",
					"hour": {
						"hour": "__tid__ time",
						"hours": "__time__ timer"
					},
					"min": {
						"minute": "__time__ minutt",
						"minutes": "__time__ minutter"
					},
					"now": "__egenskaps_handlinger__ nå"
				},
				"unsupported": "Dine regelkriterier er for tiden ikke støttet",
				"when": "når"
			},
			"details": {
				"addToDash": "Legg til på kontrollpanel:",
				"delete": {
					"modalText": "Onetouchen vil ikke lenger kjøre og vil bli fjernet fra Min Status'.",
					"oneTouch": "Du er i ferd med å slette __one_touch__"
				},
				"includedIn": "Inkludert i:",
				"runNow": "Kjør nå"
			},
			"edit": {
				"title": "Rediger Onetouch"
			},
			"emails": {
				"subjectFormatted": "Onetouch-regel __ruleName__ ble utløst",
				"usernameFormatted": "__fornavn__ __etternavn__"
			},
			"menus": {
				"doThis": {
					"header": "GJØR DETTE",
					"notifyMe": {
						"contactMenu": {
							"addNew": "Legg til ny",
							"addNewContact": "Legg til ny kontakt",
							"countryCode": "Land",
							"email": "E-postadresse",
							"emailConfirm": "Vennligst bekreft e-postadresse",
							"emailOptional": "E-postadresse (valgfri)",
							"mobilePhone": "Mobilnummer",
							"mobilePhoneOptional": "Mobilnummer (valgfritt)",
							"name": "Navn på kontakt",
							"select": "Hvordan vil du og dine gjester helst motta varsel?"
						},
						"email": "Send e-post",
						"emailHeader": "E-post",
						"sms": "Send SMS",
						"smsHeader": "Tekst SMS"
					},
					"propertyChange": {
						"changeFanMode": "Skift viftemodus",
						"changeMode": "Skifter modus",
						"changeSetTemp": "Skift innstillingspunkt",
						"exactTemp": "Eksakt temperatur",
						"fanAuto": "Auto",
						"fanOn": "Vifte på",
						"increaseDecrease": "Øk eller reduser med",
						"smartPlugOff": "Slå smartplugg AV",
						"smartPlugOn": "Slå smartplugg PÅ",
						"waterHeater": {
							"boost": "Still inn til økningsmodus",
							"continuous": "Still inn for å kjøre kontinuerlig",
							"off": "Still inn til av",
							"schedule": "Still inn til plan"
						}
					},
					"root": {
						"notifyMe": "Send meg en melding",
						"propertyChange": "Endre egenskaper på en enhet"
					}
				},
				"thenDoThis": {
					"header": "DA GJØR DETTE SENERE",
					"root": {
						"stateOfEquipment": "Status på utstyr",
						"undo": "Angre"
					},
					"timer": {
						"changeCheckBox": "Tillat bruker å endre varighet",
						"hours": "Så mange timer",
						"minutes": "Så mange minutter",
						"title": "Hvor mye senere skal dette skje?"
					},
					"undo": {
						"title": "Endre denne Onetouchen?"
					}
				},
				"when": {
					"dayOfWeek": {
						"finalMenu": "Velg dagene du vil kjøre Onetouch.",
						"picker": "Velg ukedager",
						"weekday": "Ukedager",
						"weekend": "Ukeslutt"
					},
					"header": "NR",
					"pressAButton": {
						"button": "Regel starter ved tastetrykk"
					},
					"root": {
						"dayOfWeek": "Ukedag",
						"pressAButton": "Jeg trykker en knapp",
						"stateOfEquipment": "Utstyrsstatus",
						"timeOfDay": "Klokkeslett",
						"weather": "Vær"
					},
					"stateOfEquipment": {
						"doorWindow": {
							"closed": "Er lukket",
							"open": "Er åpen"
						},
						"equipmentCategory": "Utstyrskategorier",
						"equipmentGroup": "Utstyrsgrupper",
						"individualEquipment": "Individuelt utstyr",
						"sensor": {
							"alert": "Sensorvarsler"
						},
						"smartPlug": {
							"off": "Smartplugg er AV",
							"on": "Smartplugg er PÅ"
						},
						"thermostats": {
							"above": "Over",
							"below": "Under",
							"between": "Mellom",
							"enterValue": "Skriv inn en temperatur",
							"selectAboveValue": "Velg  temperatur over",
							"selectBelowValue": "Velg temperatur under"
						},
						"waterHeater": {
							"boost": "Er i økningsmodus",
							"continuous": "Kjører kontinuerlig",
							"off": "Er av",
							"schedule": "Kjører på plan"
						}
					},
					"timeOfDay": {
						"endTime": "Sluttid",
						"endTimeError": "Sluttid må være etter starttid",
						"formatError": "Vennligst skriv inn i korrekt format",
						"specify": "Sett tid",
						"startTime": "Start tid",
						"sunriseSunset": "Soloppgang / Solnedgang",
						"to": "til"
					},
					"weather": {
						"current": "Nåværende temperatur",
						"forecast": "Værmelding"
					}
				}
			},
			"recommended": {
				"addRecommended": "Legg til Onetouch",
				"modal": {
					"titleFormatted": "Bruk OneTouch regel '__ruleName__'"
				},
				"smartPlug": {
					"12am": {
						"description": "Slå av en smartplugg ved midnatt",
						"name": "Slå av ved midnatt",
						"nameFormatted": "Slå av ved midnatt: __name__"
					},
					"oneHour": {
						"description": "Slå på en smartplugg i 1 time",
						"name": "En time nedtelling",
						"nameFormatted": "En time nedtelling på: __name__"
					},
					"title": "Smartplugger",
					"turnOff": {
						"description": "Slå av en smartplugg omgående",
						"name": "Slå av",
						"nameFormatted": "Slå av: __name__"
					}
				},
				"thermostat": {
					"title": "Termostater",
					"turnOff": {
						"description": "Slå av en termostat omgående",
						"name": "Slå av termostat",
						"nameFormatted": "Slå av termostat: __navn__"
					}
				},
				"title": "Anbefalt",
				"waterHeater": {
					"boostFor2": {
						"description": "Slå på turbomodus i 2 timer",
						"name": "Turbo i 2 timer",
						"nameFormatted": "Turbo i 2 timer: __navn__"
					},
					"title": "Vannvarmere"
				}
			}
		},
		"property": {
			"names": {
				"coolingSetpoint_x100": "Innstillingspunkt for kjøling",
				"heatingControl": "Varmeregulator",
				"temperatureOffset": "Endring romtemperatur",
				"cylinderConnection": "Sylinderforbindelse",
				"oUTSensorProbe": "Sensorsonde",
				"oUTSensorType": "Sensorsonde som luftsensor eller golvsensor",
				"coolingControl": "Kjølekontroll",
				"actuatorType": "Utløsertype",
				"valveProtection": "Ventilbeskyttelse",
				"frostSetpoint_x100": "Innstillingspunkt for frysetemperatur",
				"floorCoolingMin_x100": "Golvsensor - grense for kjøling",
				"floorHeatingMax_x100": "Golvsensor  maks temperatur",
				"floorHeatingMin_x100": "Golvsensor  minimumstemperatur",
				"heatingSetpoint_x100": "Innstillingspunkt for oppvarming",
				"holdDuration": "Varighet (minutter)",
				"lEDMode": "LED-modus",
				"lockKey": "Vil du endre låseinnstillingen på termostaten?",
				"keyLock": "Vil du endre låseinnstillingen på termostaten?",
				"maxHeatSetpoint_x100": "Maks innstillingspunkt for oppvarming ",
				"minCoolSetpoint_x100": "Grense for kjøleinnstilling",
				"networkLANIP": "IP-adesse",
				"networkLANMode": "Nettverks LAN Modus",
				"networkLANRouterAddr": "Ruter",
				"networkLANSubnet": "Subnetmaske",
				"networkPriDNS": "Primær DNS",
				"networkSecDNS": "Sekundær DNS",
				"shutOffDisplay": "Slå av LCD-display",
				"systemMode": "Systemmodus",
				"temperatureDisplayMode": "Fahrenheit ELLER Celsius",
				"timeFormat24Hour": "Timeformat"
			},
			"values": {
				"actuatorClosed": "Vanligvis stengt",
				"actuatorOpen": "Vanligvis åpen",
				"alwaysOn": "Alltid på",
				"auto": "Auto",
				"celsius": "Celsius",
				"cool": "Kjøl",
				"cylinderConnected": "Sylindersonde tilkoblet",
				"cylinderNotConnected": "Sylindersonde ikke tilkoblet",
				"disabled": "Deaktivert",
				"dynamic": "Dynamisk",
				"emergencyHeating": "Nødoppvarming",
				"enabled": "Aktivert",
				"fahrenheit": "Fahrenheit",
				"heat": "Varme",
				"hour12": "12:00",
				"hour24": "24:00",
				"locked": "Ja, lås den",
				"longCycle": "+/- 0,5  grad C",
				"midCyle": "+/- 0.25 grad C",
				"no": "Nei",
				"numberInCFormatted": "__antall__ grader C",
				"numberInFFormatted": "__antall__ grader F",
				"off": "Av",
				"offWhenIdle": "Av når inaktiv",
				"on": "På",
				"sensorAir": "Luftsensor",
				"sensorConnected": "Sensorsonde tilkoblet",
				"sensorDewPointConnected": "Duggpunktsensor tilkoblet",
				"sensorFloor": "Golvsensor",
				"sensorNotConnected": "Ingen sensor tilkoblet",
				"shortCyle": "+/- 0",
				"static": "Statisk",
				"turnOff": "Slå av",
				"turnOn": "Slå på",
				"unlocked": "Nei, ikke lås den",
				"yes": "Ja"
			}
		},
		"provisioning": {
			"boilerReceiver": "iT600 mottaker for varmtvannsbeholder",
			"coMonitor": "Kullosdetektor",
			"coordinator": "Koordineringsenhet",
			"device": "Salus-kontrollert enhet",
			"doorSensor": "Dørsensor",
			"energyMeter": "Energimonitor for hele huset",
			"gateway": "Salus universell gateway",
			"gatewayNode": "Gatewaynode",
			"it530Thermostat": "iT530 termostat",
			"it600Thermostat": "iT600 Thermostat",
			"namedEnergyMonitor": "__navn__s Energimonitor",
			"optimaThermostat": "Optima termostat",
			"smartPlug": "Smartplugg",
			"smokeAlarm": "Røykdetektor",
			"trv": "iT600 TRV",
			"windowSensor": "Vindussensor",
			"wiringCenter": "iT600 koblingssenter"
		},
		"schedule": {
			"create": {
				"description": "Kjøreplaner driver automatisk utstyrets foretrukne innstillinger.",
				"no": "Ikke nå",
				"question": "Ønsker du å opprette en kjøreplan for dette utstyret nå?",
				"yes": "Ja, opprett en kjøreplan"
			},
			"widget": {
				"title": "Plan"
			}
		},
		"settings": {
			"empty": "Beklager, du har ingen innstillinger å vise!",
			"networkSettingsSaveConfirmSecondary": "Ønsker du å lagre dine nettverksinnstillinger?",
			"networksSettingsSaveConfirmPrimary": "Du har oppdatert dine nettverksinnstillinger. Lagring av dette vil kreve at du forblir på denne siden i 1 minutt.",
			"networksSettingsSavingPrimary": "Vi lagrer dine nettverksinnstillinger. Vennligst ikke naviger bort fra siden.",
			"networksSettingsSavingSecondary": "Denne prosessen vil ta omtrent 1 minutt.",
			"title": "Innstillinger"
		},
		"stackedBarGraph": {
			"time": "Tid",
			"watts": "Watt"
		},
		"status": {
			"alias": "Navn på utstyr",
			"battery": {
				"charged": "__val__% ladet"
			},
			"monitoring": "Overvåker",
			"thermostat": {
				"lock": "Termostat låst",
				"unlock": "Termostat ulåst"
			}
		},
		"thermostat": {
			"frostPointModal": {
				"header": "Sl† HVAC-systemet av",
				"labels": {
					"buttonCancel": "Avbryt",
					"buttonTurnOff": "Slå av HVAC",
					"chooseFrostPoint": "Velg et frysepunkt",
					"radioNo": "Nei, ikke sett frysepunkt",
					"radioYes": "Ja, sett frysepunkt til"
				},
				"subHeader": "Ønsker du †å sette en frysepunkttemperatur?",
				"tempModeC": "__nummer__ &#8451;",
				"tempModeF": "__nummer__ &#8457;"
			},
			"holdPointModal": {
				"header": "Hold satt temperatur",
				"holdTitle": "Hold",
				"labels": {
					"btnCancel": "Avbryt",
					"btnOk": "Ok",
					"radioScheduleChange": "Inntil neste endring av kjøreplan",
					"radioUntilChange": "Inntil jeg endrer den satte temperaturen"
				}
			},
			"menus": {
				"modeLabels": {
					"auto": "Auto",
					"cooling": "Kjøling",
					"fan": "Vifte",
					"fanOn": "Vifte på",
					"followSchedule": "Følg kjøreplan",
					"heating": "Oppvarming",
					"off": "Av",
					"permanentHold": "Permanent Hold",
					"systemOff": "System av",
					"temporaryHold": "Midlertidig hold"
				}
			}
		},
		"thermostatSingleControl": {
			"createPage": {
				"addButtonText": "Legg til en ny enkeltkontroll",
				"bottomBlurb": "Du kan fremdeles gjøre endringer i denne enkeltkontrollen etter du har satt den opp.",
				"delete": "Slett enkeltkontroll",
				"deviceError": "Det må være minst 1 linket enhet i TSC",
				"error": "Der oppstod et problem med å opprette TSC. Vennligst prøv igjen",
				"individualControls": "Individuelle kontroller",
				"nameError": "Vennligst skriv inn et gyldig navn for din TSC",
				"newTSCSectionTitle": "Gi denne enkeltkontrollen et navn",
				"newTSCText": "f. eks Soverom ovenpå",
				"thermostatsSectionTitle": "Velg de termostatene du ønsker i denne enkeltkontrollen.",
				"titleExisting": "Enkeltkontroller",
				"titleNoExisting": "Oppsett av enkeltkontroll",
				"typeError": "Du kan ikke blande typer termostatmodeller i en TSC"
			},
			"initialSetup": {
				"description": "Endre en, endre mange. Lorem ipsum dolor sit amet, consectetur adipiscing elit. Sed gravida bibendum dictum. Maecenas nec eleifend dui. Suspendisse mollis purus scelerisque maximus ultricies. Nulla a metus arcu. Interdum et malesuada fames ac ante ipsum",
				"prompt": "Ønsker du å sette opp en enkeltkontroll for flere termostater?",
				"title": "Oppsett av eneltkontroll"
			},
			"title": "Termostat enkeltkontroll"
		},
		"trv": {
			"add": "Add TRV",
			"modal": {
				"title": "Velg TRV(er) for __name__",
				"tooMany": "Du kan tilknytte opp til 6 TRV-er til en termostat"
			},
			"noTrvs": "Ingen TRV-er er for øyeblikket tilknyttet denne enheten",
			"title": "TRV-er på denne termostaten"
		},
		"usage": {
			"interactiveMode": "Interaktiv modus",
			"title": "Bruk"
		}
	},
	"error404": {
		"backToDash": "Tilbake til hjem",
		"message": "Siden du ser etter kan ikke finnes.",
		"title": "404 Feil"
	},
	"errors": {
		"responseText": "Svartekst:",
		"serviceEndpoint": "Serviceendepunkt:",
		"siteMessage": "Beklager, det har oppstått en feil, vennligst klikk her for å prøve igjen!",
		"statusCode": "Statuskode:",
		"statusText": "Statustekst:"
	},
	"key": "forbruker-en",
	"login": {
		"changePasswordWithToken": {
			"button": "Lagre nytt passord",
			"confirmPasswordLabel": "Bekreft nytt passord",
			"message": "Lag nytt passord",
			"newPasswordLabel": "Nytt passord",
			"resetPasswordTokenLabel": "Nullstill passordtegn"
		},
		"confirm": {
			"emailSent": "Vi sender deg en e-post med det samme, så du kan bekrefte din konto.",
			"headline": "Nesten framme",
			"ready": "Klar til †\\å logge inn?",
			"resend": "Din konto er nesten bekreftet, __user_name__!",
			"thanks": "Takk for at du meldte deg på, __user_name__!",
			"trustedSender": "Sørg for å legge email@salus.com til dine sikre e-post-kontakter for å kunne motta oppdateringer fra oss."
		},
		"forgotPassword": {
			"backToSignInLinkLabel": "Tilbake til Logg på",
			"button": "Midlertidig tegn for e-post",
			"inputLabel": "E-post for denne kontoen",
			"message": "Glemt passord?"
		},
		"forgotPasswordConfirmation": {
			"button": "Tilbake til Logg inn",
			"message": "Vi har sendt deg instruksjoner for å tilbakestille passordet. Vennligst sjekk e-posten din.",
			"title": "Glemt passord"
		},
		"headline": "Velkommen til\nSalus",
		"login": {
			"accountLink": "Sett opp en konto",
			"accountMessage": "Har du ingen konto ennå?",
			"button": "Logg på",
			"emailLabel": "E-post",
			"error": {
				"accountLocked": "Din konto er blitt låst på grunn av ukorrekte innloggingsforsøk. Vennligst vent 30 minutter før du logger inn igjen.",
				"invalidLanguage": "Vennligst velg et språk",
				"invalidUsernamePassword": "Ditt passord eller e-postadresse er feil. Vennligst prøv igjen."
			},
			"forgotPassword": "Glemt passordet?",
			"keepLoggedIn": "Hold meg pålogget",
			"passwordLabel": "Passord",
			"resendConfirmationEmail": "Send ny bekreftelse på e-post",
			"siloMessage": {
				"eu": "Endre til US App",
				"us": "Endre til EU App"
			}
		},
		"pinpad": {
			"authInvalid": "Pin-koden du skrev inn var ugyldig",
			"authSuccess": "Pinkode autentisert",
			"pinRemoveFail": "Kan ikke slette pinkode",
			"pinRemoved": "Vellykket sletting av pinkode",
			"setFail": "Kan ikke sette pinkode",
			"setSuccess": "Vellykket setting av pinkode"
		},
		"resetPassword": {
			"changeFailed": "Forsøket på å endre passord mislykkes",
			"requestNewToken": "Du kan be om et annet tegn ved å  navigere til Glemt passord",
			"title": "Endring av passord mislykket.",
			"tokensExpire": "Tegn utløper hver 6. time",
			"tryAgain": "Du kan prøve igjen hvis tegnet er feilskrevet"
		},
		"sendConfirmationEmail": {
			"backToSignInLinkLabel": "Tilbake til logg inn",
			"button": "Send ny bekreftelse på e-post",
			"message": "Kontobekreftelse"
		},
		"signInWithToken": {
			"button": "Tilknyttet enhet",
			"error": {
				"invalidToken": "logg inn.medtegn.feil.ugyldigtegn"
			},
			"inputLabel": "Aktiveringskode",
			"message": "Tilknytt denne mobile enheten til din konto"
		},
		"welcome": {
			"accountLink": "Logg inn",
			"accountMessage": "Har du allerede en konto?",
			"button": "Meld deg på",
			"message": "La oss komme i gang."
		}
	},
	"messageCenter": {
		"alerts": {
			"alarmSounding": "Alarmen lyder nå",
			"alert": "Varsel",
			"criteria": "Varselkriterier",
			"currentStatus": "Nåværende status",
			"dateTime": "Dato & Tid",
			"details": "Detaljer",
			"equipment": "Utstyr",
			"subHeader": "Varsel lorem ipsum dolor sit amet alipsis diam.",
			"title": "Varsler"
		},
		"notifications": {
			"subHeader": "Meldinger for de siste 90 dagene",
			"title": "Meldinger"
		},
		"title": "Meldingssenter"
	},
	"missingKey": "##############################",
	"myStatus": {
		"addNewGateway": "Legg til en ny gateway",
		"addNewStatus": "Legg til ny status",
		"makeNewStatus": {
			"createNewOneTouch": "Opprett en ny Onetouch for denne statusen",
			"delete": "Slett status",
			"deleteWarning": "Slette denne statusen?",
			"editName": {
				"name": "Navn"
			},
			"invalidGateway": "Du bruker en ugyldig gateway. Vennligst endre gateway, eller legg til en ny gyldig gateway.",
			"ruleView": {
				"run": "Kjør når statusen starter"
			}
		},
		"newStatus": {
			"createStatusTitle": "Opprett en ny status",
			"formFields": {
				"continue": "Fortsett",
				"statusName": "Navn på status"
			},
			"giveStatusName": "Navngi denne statusen",
			"selectIcon": "Velg et ikon for statusen",
			"selectIconInstructions1": "Velg et ikon fra din IT600 og kontroller statusen fra IT600-en eller applikasjonen.",
			"selectIconInstructions2": "Velg et annet ikon for å kontroller statusen fra applikasjonen.",
			"showLessIcons": "Vis færre ikoner",
			"showMoreIcons": "Vis flere ikoner"
		},
		"newStatusAdded": "Ny status lagt til",
		"noGatewayMessage": "Ingen gateway funnet. Vennligst legg til en gateway.",
		"title": "Min status"
	},
	"schedules": {
		"deviceTypes": {
			"smartPlug": "smartplugger",
			"thermostat": "termostater",
			"waterHeater": "varmtvannstank"
		},
		"edit": {
			"changeIndividualThermostat": {
				"no": "Nei, bare denne",
				"subtitle": "Ønsker du å gjøre denne endringen på alle termostatene av samme modell?",
				"title": "Du er i ferd med å endre en innstilling på en av termostatene.",
				"yes": "Ja, gjør det for alle av denne modellen"
			},
			"changeSingleControl": {
				"changeGroup": {
					"no": "Nei, ikke nå",
					"subtitle": "Er du sikker på du vil gjøre dette nå?",
					"title": "Du er i ferd med å endre innstillingene for alle termostatene i din enkeltkontroll",
					"yes": "Ja, gjør endringen"
				},
				"changeSingle": {
					"changeJustThermostat": "Endre bare denne termostaten",
					"changeSingleControl": "Endre alle termostatene i enkeltkontrollen",
					"subtitle": "Ønsker du å gjøre denne endringen for alle termostatene i enkeltkontrollen?",
					"title": "Du er i ferd med å endre innstillingene for en av termostatene i enkeltkontrollen"
				}
			},
			"modal": {
				"addNew": "Legg til en ny enkeltkontroll",
				"deleteLabel": "Slett enkeltkontroll",
				"duplicateTstatsErrorBody": "Vennligst sørg for at ikke den samme termostaten er koblet opp mot mer enn en enkeltkontroll, og at alle enkeltkontroller har et navn og minst en termostat valgt.",
				"duplicateTstatsErrorTitle": "Feil: En eller flere enkeltkontroller kunne ikke lagre.",
				"emptyIndividualControls": "Ingen individuelle kontroller tilgjengelige",
				"emptySingleControls": "Ingen enkeltkontroller tilgjengelige",
				"emptyThermostats": "Ingen termostater tilgjengelige",
				"individualLabel": "Individuelle kontroller",
				"nameLabel": "Navn på enkeltkontrollen",
				"title": "Rediger enkeltkontroll for termostat"
			},
			"previousScreen": "< Kjøreplan  forhåndsinnstillinger",
			"thermostatList": {
				"emptyThermostats": "Ingen tilgjengelige termostater eller enkeltkontroller"
			},
			"thermostatSettings": {
				"addInterval": "Legg til intervall",
				"apply": "Bruk kjøreplan",
				"cancel": "Avbryt",
				"description": "Lorem ipsum dolor sit amet, in molestie sententiae pro, an qui sint iuvaret officiis. Aperiri equidem ea vis, eam natum affert vituperata ex, nec ne constituam philosophia.",
				"start": "STARTTID",
				"temp": "TEMPERATUR"
			}
		},
		"emptyView": {
			"message": "Du har ingen __type__ på denne gatewayen. Vennligst legg til __type__ for å stille inn planer for dem."
		},
		"presets": {
			"description": "Vi har designet tre forhåndsinnstilte kjøreplaner basert på vanlig daglig livsstil. Velg en av de tre eller opprett din egen.",
			"presetSchedules": {
				"createNew": {
					"description": "Sett opp din egen termostat-kjøreplan, så hjemmet ditt fungerer akkurat slik du vil.",
					"title": "Sett opp din egen kjøreplan"
				},
				"mostlyAway": {
					"description": "Designet for dem som er borte mer enn de er hjemme.",
					"title": "Borte det meste av tiden"
				},
				"mostlyHome": {
					"description": "For dem som er hjemme mer enn de er borte.",
					"title": "Hjemme det meste av tiden"
				},
				"workingWeek": {
					"description": "For hjem som opererer med en tradisjonell 9-til-4-uke fra mandag til fredag,og er hjemme i helgene.",
					"title": "Tradisjonell arbeidsuke"
				}
			},
			"title": "Velg en forhåndsinnstilt kjøreplan eller sett opp din egen"
		},
		"schedule": {
			"addInterval": "Legg til intervall",
			"columnLabels": {
				"mode": "SYSTEMMODUS",
				"startTime": "STARTTID",
				"temperature": "TEMPERATUR"
			},
			"deleteInterval": "Slett intervall",
			"newInterval": {
				"add": "Legg til",
				"mode": {
					"cool": "Kjøl",
					"heat": "Varm",
					"off": "Av",
					"on": "På",
					"title": "Modus:"
				},
				"startTime": "STARTTID",
				"temperature": "Temperatur",
				"temperatureError": "Temperatur ugyldig. Vennligst legg inn et tall mellom __gulv__ og __tak__. Desimaltall må ende med 0 eller 5",
				"timeError": "Tiden lagt inn er ikke gyldig. Vennligst legg inn en tid i formatet tt:mm am/pm",
				"title": "Legg til nytt intervall",
				"update": "Oppdater"
			},
			"noIntervals": "Det er ingen intervaller i denne planen.",
			"weekConfigurations": {
				"MO-FR": "MA - FR",
				"MO-SU": "MA - SØ",
				"SA-SU": "LØ - SØ"
			},
			"weekDropdown": {
				"daily": "Daglig",
				"fullWeek": "Hjemme mesteparten av tiden / MA-SØ",
				"workWeek": "Arbeidsuke / MA-FR og LØ+SØ"
			}
		},
		"smartPlug": {
			"title": "Smart Plug-plan"
		},
		"thermostat": {
			"duplicateSchedule": {
				"description": "Hvilke(n) termostat(er) ønsker du å kopiere denne kjøreplanen til?",
				"duplicate": "Kopier",
				"error": "Du må ha planoppføringer for å duplisere en plan. Påse at du har lagret planen din",
				"title": "Kopier kjøreplan"
			},
			"instructions": "Velg typen kjøreplan du ønsker å sette opp for denne enkeltkontrollen",
			"selectionTitle": "Velg en kjøreplan-konfigurasjon",
			"subtitle": "Sett opp din egen kjøreplan",
			"title": "Termostat-kjøreplan"
		},
		"waterHeater": {
			"title": "Vannvarmer-kjøreplan"
		}
	},
	"settings": {
		"about": {
			"buildDateTitle": "Opprettelsesdato",
			"companyName": "Salus Controls Inc.",
			"companyTitle": "Firma",
			"copyrightFormatted": "© __nåværendeÅr__ Salus Controls Inc.",
			"releasedTitle": "Utgitt",
			"versionTitle": "Versjon"
		},
		"dataCollection": {
			"options": {
				"off": "Du har alltid lov til å slå av datainnsamling.  slå av denne betyr at applikasjonen automatisk deaktiveres og din mobile enhet eller datamaskin kan ikke brukes for administrere ditt utstyr eller service. Du kan alltid behandle utstyret manuelt.  Vi viser til utstyrets brukerh†ndbok for instruksjoner.",
				"on": "Vi anbefaler at du har denne P. Data samlet fra din mobile enhet og utstyr brukes for † kj?re applikasjonen og den tilknyttede hjemmetjenesten, og for † sende viktige varsler og meldinger.",
				"optionPrefix": "Datainnsamling er",
				"referUserGuide": "Du kan alltid manuelt administrere ditt utstyr. Rådfør deg med brukerveiledningen for utstyret for instruksjoner."
			},
			"subheader": "Du har valgt å slå av datainnsamling. Ved å gjøre det, har du deaktivert  applikasjonen. Vennligst slå Datainnsamling PÅ for fortsatt å bruke applikasjonen",
			"title": "Datainnsamling"
		},
		"manageDevices": {
			"devices": {
				"addShare": "Tilknytt mobil enhet",
				"deleteShareModal": "Du er i ferd med å slette",
				"deleteUser": "Slett bruker",
				"description": "Du kan dele ditt  SalusConnect-utstyr med så mange personer som du vil. Du bestemmer hva dine gjester ser og har tilgang til.",
				"empty": "Du har ikke delt din konto med noen gjester.",
				"formHeader": "Tilknytt en mobil enhet",
				"formLabels": {
					"countrySelect": "Land",
					"deselectAll": "Velg bort alle",
					"deviceListHeader": "Gi denne gjesten tilgang til:",
					"email": "E-postadresse",
					"emptyDevices": "Ingen tilgjengelig enhet",
					"firstName": "Fornavn",
					"lastName": "Etternavn",
					"name": "Navn eller alias for denne enheten",
					"selectAll": "Velg alle"
				},
				"header": "Kontodeling"
			},
			"gateway": {
				"addGateway": "Legg til gateway",
				"description": "",
				"empty": "Du har ingen gateway tilknyttet.",
				"header": "Gatewayer"
			},
			"title": "Administrer konto"
		},
		"profile": {
			"changePassword": {
				"formFields": {
					"confirmPassword": "Bekreft passord",
					"newPassword": "Nytt passord",
					"oldPassword": "Gammelt passord"
				},
				"passwordRequirements": "Passord må være mellom 6 og 14 tegn lange og må inneholde et numerisk tegn (0 - 9) eller symbol, en liten bokstav (a - z), og en stor bokstav (A - Z).",
				"title": "Endre passord"
			},
			"deleteProfile": "Slett brukerprofil",
			"deleteProfileErrorMsg": "Feil ved sletting av brukerprofil. Vennligst prøv igjen senere.",
			"deleteProfileWarningLine1": "Slette din brukerprofil?",
			"deleteProfileWarningLine2": "Denne operasjonen kan ikke gjøres om.",
			"formFields": {
				"email": "E-postadresse",
				"emailConfirm": "Bekreft E-postadresse",
				"firstName": "Fornavn",
				"languageSelect": "Språk",
				"lastName": "Etternavn",
				"submitButton": "Send inn"
			},
			"title": "Rediger profil"
		}
	},
	"setupWizard": {
		"headline": "Velkommen til Salus!",
		"landing": {
			"createProfile": {
				"active": "Din profil har blitt opprettet."
			},
			"equipmentConnect": {
				"button": "Koble til utstyr",
				"inactive": "Koble ditt utstyr til gatewayen nå."
			},
			"equipmentShare": {
				"button": "Del utstyr",
				"inactive": "Del ditt utstyr ved å gi tilgang for familie og venner."
			},
			"gatewayConnect": {
				"active": "Din gateway er nå aktivert og klar for å tilkobles utstyret.",
				"button": "Aktiver gateway",
				"inactive": "Aktiver gatewayen for å begynneå å bruke enhetene."
			},
			"header": {
				"connect": "Koble utstyret til gatewayen",
				"gateway": "Aktiver gatewayen"
			},
			"subHeaderHtml": {
				"connect": "Vellykket! Din profil er opprettet og gatewayen er aktivert.<br/>La oss linke enheter og koble utstyret til gatewayen å†.",
				"gateway": "Vellykket! Din profile er opprettet og din gateway er aktivert."
			}
		},
		"newUserForm": {
			"cookieModal": {
				"information": "Cookies hjelper Salus' nettside å  fungere ordentlig. Vi bruker dem bare for å huske innloggingsdetaljer, sørge for sikker innlogging, og samle statistikk for å optimalisere funksjonalitet. Du kan ikke fortsette uten å  klikke på Aksepter. Vennligst se vår __privacy_policy__ for mer informasjon."
			},
			"equipment": "Har du gatewayen?",
			"formFields": {
				"countrySelect": "Land",
				"email": "E-postadresse",
				"emailConfirm": "Bekreft E-postadresse",
				"firstName": "Fornavn",
				"languageSelect": "Språk",
				"lastName": "Etternavn",
				"password": "Passord",
				"passwordConfirm": "Bekreft passord",
				"phone": "Telefonnummer",
				"phoneType": "Telefontype",
				"privacyPolicyLabel": "Jeg aksepterer Salus Controls",
				"privacyPolicyLinkLabel": "Personvern policy",
				"submitButton": "Sett opp min profil",
				"termsAndConditionsLabel": "Jeg aksepterer Salus Controls",
				"termsAndConditionsLinkLabel": "Regler og betingelser"
			},
			"header": "Oppsettet er enkelt.",
			"passwordRequirements": "Passord må være mellom 6 og 14 tegn lange og må inneholde et numerisk tegn (0 - 9) eller symbol, en liten bokstav (a - z), og en stor bokstav (A - Z).",
			"phoneTypes": {
				"phone": "Telefon",
				"tablet": "Nettbrett"
			},
			"subheader": "Opprett din profil",
			"tooltip": {
				"equipment": "Sender signal til ditt utstyr så du kan få trådløs tilgang."
			}
		},
		"pairing": {
			"buttonText": "Skann etter utstyr",
			"header": "Velkommen! La oss koble til utstyret",
			"noCoordinator": "Ingen koordinator",
			"paragraphHtml": "Som forberedelse til å koble til utstyr, vennligst se til at alt utstyr e påslått<ol><li>Ti å begynne med finner du knappen på hver enkelt utstyrsenhet. Ikke trykk den ennå. Hvis du har problemer med å finne på-knappen på utstyret, se brukermanualen.</li><li>Deretter skal du trykke den oransje Skann-etter-utstyr-knappen nedenfor. Vennligst merk: når du først trykker Skann-etter-utstyr, har du bare to minutter på deg til å trykke knappen på utstyret fra Trinn 1. Hold knappen nede i  3-5 sekunder.</li><li>Gjenta prosessen til du ser alt utstyret ditt vises nedenfor. Hvis du har gjentatt prosessen flere ganger uten å se alt ditt utstyr, kontakt Kundeservice (Customer Care).</li></ol>",
			"requiresCoordinator": "Enhetstildeling krever at en koordinator-enhet tilknyttes gatewayen. Vennligst pr?v † re-registrere gatewayen."
		},
		"provisioning": {
			"customize": {
				"access": "Tilgang",
				"accessInfo": "Ønsker du at noen andre skal få tilgang til denne utstyrsenheten? I så fall, velg nedenfor.",
				"clampsError": "Du må velge 3 klammer.",
				"clampsReading": "Velg klammene du bruker",
				"completeSetup": "Komplett oppsett",
				"continueSetupEquipment": "Fortsett å sette opp utstyr",
				"energyMonitor": "Energimonitor-oppsett for hele huset",
				"noShares": "Ingen delte brukere tilgjengelig på nåværende tidspunkt. Du kan dele utstyret når du vil etter oppsettet er ferdig.",
				"oneTouch": "OneTouch",
				"oneTouchInfo": "Onetouch lar deg behandle og/eller sette opp varsler automatisk for en eller flere utstyrsenheter med et enkelt trykk.Vi har forhåndsvalgt alternativer som kan passe dine behov. Hvis du ikke liker dem, kan du ganske enkelt ta bort Onetouchen eller velge en annen. Du kan alltid gjøre endringer for hvilken som helst Onetouch senere.",
				"oneTouchPreselected": "Vi har forhåndsvalgt alternativer som kan passe dine behov. Om du ikke liker dem, bare avvelg OneTouch eller velg en annen. Du kan alltid foreta endringer til OneTouch senere.",
				"phasesReading": "Hvor mange faser?",
				"pin": "Ønsker du å feste denne utstyrsenheten til kontrollpanelet ditt?",
				"pinHeader": "Fest",
				"pinInfo": "Et feste setter de viktigste enhetene p† kontrollpanelet slik at du har hurtig og enkel tilgang til dem.",
				"selectAnother": "Velg neste utstyrsenhet.",
				"selectPhases": "Velg faser",
				"selectVoltage": "velg strømstyrke",
				"selectWhich": "Velg den utstyrsenheten du vil begynne med.",
				"setupEquipment": "La oss sette opp utstyret",
				"success": {
					"mobile": {
						"description": "Ser du etter anvendelighet for en applikasjon? Last ned vare for dine enheter nå. Tilgjengelig på iTunes eller GooglePlay.",
						"link": "Last ned appen",
						"title": "Den mobile appen"
					},
					"myDashboard": {
						"description": "Se på vårt nye kontrollpanel. Se og håndter ditt utstyrpå et øyeblikk for uanstrengt husadministrasjon på en skjerm. Du kan legge til mer utstyr fra kontrollpanelet senere.",
						"link": "Gå til mitt kontrollpanel",
						"title": "Mitt kontrollpanel"
					},
					"title": "Vellykket!\nDu er helt ferdig med oppsettet."
				},
				"successfullySetup": "Vellykket! Du er helt ferdig med oppsettet.",
				"voltageReading": "Hva er din strømstyrke?"
			},
			"naming": {
				"nowConnected": "Utstyret nedenfor er ikke koblet til gateway. Vennligst sett navn på utstyret.",
				"success": "Suksess!",
				"textbox": "Navngi dette utstyret (f. eks. soveromstermostat)"
			},
			"select": {
				"connect": "Koble til utstyret",
				"currentlyScanning": "Skanner etter enheter...",
				"letsConnect": "La oss koble til utstyret",
				"notFound": "Beklager, ingen enheter funnet",
				"select": "Sjekk boksen ved siden av hver utstyrsenhet du ønsker å koble til nå. Click \"Koble til enhet\".",
				"selectError": "Vennligst velg minst en utstyrsenhet før du går videre"
			}
		},
		"subheader": "Som førstegangsbruker bes du vennligst fullføre noen få enkle trinn for å håndtere din konto og ditt utstyr.<br/>La ossgå i gang med å sette opp ditt nye system."
	}
}							
