<?xml version="1.0" encoding="utf-8"?>
<!-- Generator: Adobe Illustrator 16.0.0, SVG Export Plug-In . SVG Version: 6.00 Build 0)  -->
<!DOCTYPE svg PUBLIC "-//W3C//DTD SVG 1.1//EN" "http://www.w3.org/Graphics/SVG/1.1/DTD/svg11.dtd">
<svg version="1.1" id="Layer_1" xmlns="http://www.w3.org/2000/svg" xmlns:xlink="http://www.w3.org/1999/xlink" x="0px" y="0px"
	 width="100px" height="100px" viewBox="0 0 100 100" enable-background="new 0 0 100 100" xml:space="preserve">
<path fill="#ffa000" d="M15.736,63.806V97.21H74.86V63.806L45.297,34.013L15.736,63.806z M45.297,13.788l-17.771,17.91v-9.145
	h-9.271v18.491L0.72,58.715l6.688,6.741l8.329-8.392l29.561-29.793L74.86,57.064l8.328,8.392l6.688-6.741L45.297,13.788z"/>
<g>
	<path fill="#ffa000" d="M64.014,20.399l-7.329-7.246l-3.142,3.139l7.33,7.245C61.778,22.359,62.835,21.306,64.014,20.399z"/>
	<path fill="#ffa000" d="M75.306,17.694V7.242h-4.258v10.452C71.048,17.504,75.306,17.504,75.306,17.694z"/>
	<path fill="#ffa000" d="M85.563,23.499l7.247-7.206l-3.142-3.139l-7.247,7.206C83.601,21.266,84.657,22.319,85.563,23.499z"/>
	<path fill="#ffa000" d="M72.633,20.084c-4.367,0-8.242,2.447-10.334,6.017L78.42,42.493c3.664-2.067,6.186-6,6.186-10.438
		C84.605,25.531,79.159,20.084,72.633,20.084z"/>
	<path fill="#ffa000" d="M87.633,30.656c0.189,0,0.189,4.258,0,4.258H98.72v-4.258H87.633z"/>
	<path fill="#ffa000" d="M81.928,44.673l7.741,7.744l3.139-3.141l-7.738-7.742C84.163,42.713,83.106,43.767,81.928,44.673z"/>
</g>
</svg>
